Name_cate,positive_number,negative_number,percent_accuracy
01,16,9,0.64
02,12,21,0.36363636363636365
03,5,2,0.7142857142857143
04,0,0,0.0
05,0,0,0.0
06,0,7,0.0
07,6,0,1.0
08,3,2,0.6
09,0,0,0.0
10,2,10,0.16666666666666666
11,6,1,0.8571428571428571
12,6,3,0.6666666666666666
13,17,20,0.4594594594594595
14,1,1,0.5
15,0,1,0.0
16,0,0,0.0
17,0,4,0.0
18,1,4,0.2
19,4,3,0.5714285714285714
21,1,14,0.06666666666666667
22,2,37,0.05128205128205128
23,0,3,0.0
25,6,8,0.42857142857142855
26,11,8,0.5789473684210527
27,2,29,0.06451612903225806
